{
  "project_info": {
    "project_number": "524734544788",
    "project_id": "custom-notification-e8fe9",
    "storage_bucket": "custom-notification-e8fe9.appspot.com"
  },
  "client": [
    {
      "client_info": {
        "mobilesdk_app_id": "1:524734544788:android:0540dddc1ddcc58e53ad81",
        "android_client_info": {
          "package_name": "customnotification.quick.controlsettings"
        }
      },
      "oauth_client": [
        {
          "client_id": "524734544788-apqjjl90kbglgucc5qf60vkteh751j9e.apps.googleusercontent.com",
          "client_type": 3
        }
      ],
      "api_key": [
        {
          "current_key": "AIzaSyCJstRgSev_mvN3Ms5olchgrSv89PW1hvQ"
        }
      ],
      "services": {
        "appinvite_service": {
          "other_platform_oauth_client": [
            {
              "client_id": "524734544788-apqjjl90kbglgucc5qf60vkteh751j9e.apps.googleusercontent.com",
              "client_type": 3
            }
          ]
        }
      }
    }
  ],
  "configuration_version": "1"
}